module a (ccc,cc,c);
vcvs #(.gain(p)) ss2 (.p(ccc),.n(0),.ps(c),.ns(0));
vcvs #(.gain(p)) ss (.p(cc),.n(0),.ps(c),.ns(0));
endmodule // a

a #() x (.ccc(1a),.cc(1b),.c(1));
a #(.p(2)) x2 (.ccc(2a),.cc(2b),.c(1));
#           v(1)       v(1a)      v(1b)      v(2a)      v(2b)      vin(x2.ss2) vin(x2.ss)
 0.         1.         3.         3.         2.         2.         1.         1.        
